{
	"name" : "force_touch",
	"version" : "1.0.1",
	"description" : "This module enables Force Touch actions for iOS homescreens.",
	"author" : {
		"name" 	: "Jonathan Hattab",
		"email" : "jonathanhattab@madjoh.com"
	},
	"dependencies" : {
		"custom_events" : "1.0",
		"styling" 		: "1.0",
		"wording" 		: "1.0"
	},
	"devDependencies" : {}
}